{
  "name": "gulptest",
  "version": "1.0.0",
  "description": "",
  "main": "index.js",
  "scripts": {
    "test": "echo \"Error: no test specified\" && exit 1"
  },
  "author": "<%= yourname %>",
  "license": "ISC",
  "dependencies": {
    "gulp": "^3.9.1",
    "gulp-concat": "^2.6.0",
    "gulp-plumber": "^1.1.0",
    "gulp-sass": "^2.3.2",
    "gulp-uglify": "^2.0.0",
    "node-bourbon": "^4.2.8",
    "node-neat": "^1.7.2"
  },
  "devDependencies": {
    "babel-preset-es2015": "^6.14.0",
    "browser-sync": "^2.17.5",
    "gulp": "^3.9.1",
    "gulp-babel": "^6.1.2",
    "gulp-cssmin": "^0.1.7",
    "gulp-ejs": "^2.2.1",
    "gulp-watch": "^4.3.9"
  }
}
